…
One difference between "normal" `dplyr` and "database" `dplyr` is that data operations stay at the database until you retrieve them. This is done with `collect()`. All of the cholera data is still in Drill and the printed display shows 10 observations because the actual query sent to Drill to give you that view is:

    SELECT * FROM  dfs.root.`/Users/bob/Data/who-cholera.csvh`  LIMIT 10

This particular CSV file is small enough to `collect()` and work with locally so you could do:


```r
cholera_df <- collect(who_cholera)

cholera_df
```

```
## # A tibble: 2,470 x 3
##    country     year  reported_cases
##  * <chr>       <chr>          <int>
##  1 Afghanistan 2016             677
##  2 Afghanistan 2015           58064
##  3 Afghanistan 2014           45481
##  4 Afghanistan 2013            3957
##  5 Afghanistan 2012              12
##  6 Afghanistan 2011            3733
##  7 Afghanistan 2010            2369
##  8 Afghanistan 2009             662
##  9 Afghanistan 2008            4384
## 10 Afghanistan 2005              33
## # ... with 2,460 more rows
```
…
